DATA2002 Assignment
…
[1] 20 30  7 20 28 20

Create new dataframe for relevant and cleaned variables

After all the cleaning, we want to merge all the relevant variables that will be used in the statistical testing into a new dataframe called cleaned_data, the variables used are work, on_time, task_approach, library, study_hrs, social_media_hrs, sleep_time, feel_anxious, wam, and gender. This is done to make it easier for us to process the data.

Code

#new dataframe
cleaned_data <- x %>%
  select(work, on_time, task_approach, library, study_hrs, social_media_hrs, anxiety_level, wam, gender_clean, cleaned_sleep_time)

cleaned_data

# A tibble: 228 × 10
   work   on_time task_approach library study_hrs social_media_hrs anxiety_level
   <chr>  <chr>   <chr>         <chr>       <dbl>            <dbl> <fct>        
 1 I don… Always  draw up a sc… Fisher         20              3   lower anxiety
 2 Part … Usually do them imme… SciTech        30              0.5 lower anxiety
 3 I don… Usually cram at the … Fisher          7              6   higher anxie…
 4 I don… Always  draw up a sc… Fisher         20              3   lower anxiety
 5 I don… Usually draw up a sc… SciTech        28              1   lower anxiety
 6 Part … Always  draw up a sc… Fisher         20              4   higher anxie…
 7 Casual Always  draw up a sc… Fisher         10              4   lower anxiety
 8 Part … Someti… cram at the … Fisher         20              2   lower anxiety
 9 I don… Always  do them imme… SciTech        30              0   lower anxiety
10 Part … Usually draw up a sc… SciTech        20              3   lower anxiety
# ℹ 218 more rows
# ℹ 3 more variables: wam <dbl>, gender_clean <chr>, cleaned_sleep_time <dbl>
…
